…
## Problem 2

``` r
new_hom_data= hom_df %>%
  mutate(status=case_when(disposition=="Closed without arrest" ~ "unsolved",
                          disposition=="Open/No arrest" ~ "unsolved",
                          disposition=="Closed by arrest" ~ "solved")) %>%
  select(city_state,status) %>%
  group_by(city_state) %>%
  summarize(total_hom=n(),
            unsolve_obs=sum(status=="unsolved")) 
new_hom_data
```

    ## # A tibble: 50 × 3
    ##    city_state      total_hom unsolve_obs
    ##    <chr>               <int>       <int>
    ##  1 Albuquerque, NM       378         146
    ##  2 Atlanta, GA           973         373
    ##  3 Baltimore, MD        2827        1825
    ##  4 Baton Rouge, LA       424         196
    ##  5 Birmingham, AL        800         347
    ##  6 Boston, MA            614         310
    ##  7 Buffalo, NY           521         319
    ##  8 Charlotte, NC         687         206
    ##  9 Chicago, IL          5535        4073
    ## 10 Cincinnati, OH        694         309
    ## # … with 40 more rows
…
``` r
output = vector("list", 5000)

for (i in 1:5000) {
  output[[i]] = sim_mean(mu=0)
}

sim_results = bind_rows(output)
sim_results
```

    ## # A tibble: 5,000 × 2
    ##    mu_hat p_value
    ##     <dbl>   <dbl>
    ##  1  0.733 0.423  
    ##  2  1.15  0.141  
    ##  3 -0.488 0.631  
    ##  4 -1.64  0.0329 
    ##  5 -0.103 0.905  
    ##  6  1.21  0.247  
    ##  7  2.77  0.00377
    ##  8  2.06  0.0152 
    ##  9 -0.355 0.683  
    ## 10 -1.12  0.271  
    ## # … with 4,990 more rows
…
